…
## 1.2


```r
gapminder_modified %>% 
  select(country, gdpPercap)
```

```
## # A tibble: 26 x 2
##    country gdpPercap
##    <fct>       <dbl>
##  1 Brazil      4986.
##  2 Brazil      6660.
##  3 Israel      4087.
##  4 Israel      5385.
##  5 Israel      7106.
##  6 Israel      8394.
##  7 Israel     12787.
##  8 Israel     13307.
##  9 Israel     15367.
## 10 Israel     17122.
## # … with 16 more rows
```
…
## 1.3


```r
gapminder %>% 
  mutate(lifeExpInc = lifeExp - lag(lifeExp)) %>% 
  filter(lifeExpInc > 0)
```

```
## # A tibble: 1,481 x 7
##    country     continent  year lifeExp      pop gdpPercap lifeExpInc
##    <fct>       <fct>     <int>   <dbl>    <int>     <dbl>      <dbl>
##  1 Afghanistan Asia       1957    30.3  9240934      821.     1.53  
##  2 Afghanistan Asia       1962    32.0 10267083      853.     1.66  
##  3 Afghanistan Asia       1967    34.0 11537966      836.     2.02  
##  4 Afghanistan Asia       1972    36.1 13079460      740.     2.07  
##  5 Afghanistan Asia       1977    38.4 14880372      786.     2.35  
##  6 Afghanistan Asia       1982    39.9 12881816      978.     1.42  
##  7 Afghanistan Asia       1987    40.8 13867957      852.     0.968 
##  8 Afghanistan Asia       1992    41.7 16317921      649.     0.852 
##  9 Afghanistan Asia       1997    41.8 22227415      635.     0.0890
## 10 Afghanistan Asia       2002    42.1 25268405      727.     0.366 
## # … with 1,471 more rows
```
…
## 1.4


```r
gapminder %>% 
       group_by(country) %>% 
        filter(gdpPercap == max(gdpPercap))
```

```
## # A tibble: 142 x 6
## # Groups:   country [142]
##    country     continent  year lifeExp       pop gdpPercap
##    <fct>       <fct>     <int>   <dbl>     <int>     <dbl>
##  1 Afghanistan Asia       1982    39.9  12881816      978.
##  2 Albania     Europe     2007    76.4   3600523     5937.
##  3 Algeria     Africa     2007    72.3  33333216     6223.
##  4 Angola      Africa     1967    36.0   5247469     5523.
##  5 Argentina   Americas   2007    75.3  40301927    12779.
##  6 Australia   Oceania    2007    81.2  20434176    34435.
##  7 Austria     Europe     2007    79.8   8199783    36126.
##  8 Bahrain     Asia       2007    75.6    708573    29796.
##  9 Bangladesh  Asia       2007    64.1 150448339     1391.
## 10 Belgium     Europe     2007    79.4  10392226    33693.
## # … with 132 more rows
```
…
